Labs/Lab7/simulation/qsim/Lab7.msim.vcd
$comment
	File created using the following command:
		vcd file Lab7.msim.vcd -direction
$end
$date
	Fri Dec 01 16:07:12 2023
$end
$version
	ModelSim Version 2020.1
$end
$timescale
	1ps
$end

$scope module lab7a_vhd_vec_tst $end
$var wire 1 ! carry $end
$var wire 1 " Clear $end
$var wire 1 # Clock $end
$var wire 1 $ o1 $end
$var wire 1 % o2 $end
$var wire 1 & o3 $end
$var wire 1 ' o4 $end

$scope module i1 $end
$var wire 1 ( gnd $end
$var wire 1 ) vcc $end
$var wire 1 * unknown $end
$var wire 1 + devoe $end
$var wire 1 , devclrn $end
$var wire 1 - devpor $end
$var wire 1 . ww_devoe $end
$var wire 1 / ww_devclrn $end
$var wire 1 0 ww_devpor $end
$var wire 1 1 ww_o1 $end
$var wire 1 2 ww_Clear $end
$var wire 1 3 ww_Clock $end
$var wire 1 4 ww_o2 $end
$var wire 1 5 ww_o3 $end
$var wire 1 6 ww_o4 $end
$var wire 1 7 ww_carry $end
$var wire 1 8 \~QUARTUS_CREATED_ADC1~_CHSEL_bus\ [4] $end
$var wire 1 9 \~QUARTUS_CREATED_ADC1~_CHSEL_bus\ [3] $end
$var wire 1 : \~QUARTUS_CREATED_ADC1~_CHSEL_bus\ [2] $end
$var wire 1 ; \~QUARTUS_CREATED_ADC1~_CHSEL_bus\ [1] $end
$var wire 1 < \~QUARTUS_CREATED_ADC1~_CHSEL_bus\ [0] $end
$var wire 1 = \~QUARTUS_CREATED_ADC2~_CHSEL_bus\ [4] $end
$var wire 1 > \~QUARTUS_CREATED_ADC2~_CHSEL_bus\ [3] $end
$var wire 1 ? \~QUARTUS_CREATED_ADC2~_CHSEL_bus\ [2] $end
$var wire 1 @ \~QUARTUS_CREATED_ADC2~_CHSEL_bus\ [1] $end
$var wire 1 A \~QUARTUS_CREATED_ADC2~_CHSEL_bus\ [0] $end
$var wire 1 B \Clock~inputclkctrl_INCLK_bus\ [3] $end
$var wire 1 C \Clock~inputclkctrl_INCLK_bus\ [2] $end
$var wire 1 D \Clock~inputclkctrl_INCLK_bus\ [1] $end
$var wire 1 E \Clock~inputclkctrl_INCLK_bus\ [0] $end
$var wire 1 F \~QUARTUS_CREATED_GND~I_combout\ $end
$var wire 1 G \~QUARTUS_CREATED_UNVM~~busy\ $end
$var wire 1 H \~QUARTUS_CREATED_ADC1~~eoc\ $end
$var wire 1 I \~QUARTUS_CREATED_ADC2~~eoc\ $end
$var wire 1 J \o1~output_o\ $end
$var wire 1 K \o2~output_o\ $end
$var wire 1 L \o3~output_o\ $end
$var wire 1 M \o4~output_o\ $end
$var wire 1 N \carry~output_o\ $end
$var wire 1 O \Clock~input_o\ $end
$var wire 1 P \Clock~inputclkctrl_outclk\ $end
$var wire 1 Q \inst10~0_combout\ $end
$var wire 1 R \Clear~input_o\ $end
$var wire 1 S \inst10~q\ $end
$var wire 1 T \inst2~0_combout\ $end
$var wire 1 U \inst2~q\ $end
$var wire 1 V \inst3~0_combout\ $end
$var wire 1 W \inst3~q\ $end
$var wire 1 X \inst4~0_combout\ $end
$var wire 1 Y \inst4~q\ $end
$var wire 1 Z \inst5~0_combout\ $end
$var wire 1 [ \inst5~1_combout\ $end
$var wire 1 \ \inst5~q\ $end
$upscope $end
$upscope $end
$enddefinitions $end
#0
$dumpvars
0!
1"
0#
0$
0%
0&
0'
0(
1)
x*
1+
1,
1-
1.
1/
10
01
12
03
04
05
06
07
0F
zG
zH
zI
0J
0K
0L
0M
0N
0O
0P
1Q
1R
0S
0T
0U
0V
0W
0X
0Y
1Z
0[
0\
1B
1C
1D
0E
08
09
0:
0;
0<
0=
0>
0?
0@
0A
$end
#10000
1#
13
1O
1E
1P
1S
1J
0Q
1T
11
1$
#20000
0#
03
0O
0E
0P
#30000
1#
13
1O
1E
1P
0S
1U
1K
0J
1Q
14
01
1%
0$
#40000
0#
03
0O
0E
0P
#50000
1#
13
1O
1E
1P
1S
1J
0Q
0T
1V
11
1$
#60000
0#
03
0O
0E
0P
#70000
1#
13
1O
1E
1P
0S
0U
1W
1L
0K
0J
1Q
15
04
01
1&
0%
0$
#80000
0#
03
0O
0E
0P
#90000
1#
13
1O
1E
1P
1S
1J
0Q
1T
11
1$
#100000
0#
03
0O
0E
0P
#110000
1#
13
1O
1E
1P
0S
1U
1K
0J
1Q
14
01
1%
0$
#120000
0#
03
0O
0E
0P
#130000
1#
13
1O
1E
1P
1S
1J
0Q
0T
0V
1X
11
1$
#140000
0#
03
0O
0E
0P
#150000
1#
13
1O
1E
1P
0S
0U
0W
1Y
1M
0L
0K
0J
1Q
16
05
04
01
1'
0&
0%
0$
#160000
0#
03
0O
0E
0P
#170000
1#
13
1O
1E
1P
1S
1J
0Q
1T
11
1$
#180000
0#
03
0O
0E
0P
#190000
1#
13
1O
1E
1P
0S
1U
1K
0J
1Q
14
01
1%
0$
#200000
0#
03
0O
0E
0P
#210000
1#
13
1O
1E
1P
1S
1J
0Q
0T
1V
11
1$
#220000
0#
03
0O
0E
0P
#230000
1#
13
1O
1E
1P
0S
0U
1W
1L
0K
0J
0Z
1Q
15
04
01
1&
0%
0$
#240000
0#
03
0O
0E
0P
#250000
1#
13
1O
1E
1P
1S
1J
0Q
1T
11
1$
#260000
0#
03
0O
0E
0P
#270000
1#
13
1O
1E
1P
0S
1U
1K
0J
1Q
14
01
1%
0$
#280000
0#
03
0O
0E
0P
#290000
1#
13
1O
1E
1P
1S
1J
0Q
0T
0V
0X
1[
11
1$
#300000
0#
03
0O
0E
0P
#310000
1#
13
1O
1E
1P
0S
0U
0W
0Y
1\
1N
0M
0L
0K
0J
1Z
1Q
17
06
05
04
01
1!
0'
0&
0%
0$
#320000
0#
03
0O
0E
0P
#330000
1#
13
1O
1E
1P
1S
1J
0Q
1T
11
1$
#340000
0#
03
0O
0E
0P
#350000
1#
13
1O
1E
1P
0S
1U
1K
0J
1Q
14
01
1%
0$
#360000
0#
03
0O
0E
0P
#370000
1#
13
1O
1E
1P
1S
1J
0Q
0T
1V
11
1$
#380000
0#
03
0O
0E
0P
#390000
1#
13
1O
1E
1P
0S
0U
1W
1L
0K
0J
1Q
15
04
01
1&
0%
0$
#400000
0#
03
0O
0E
0P
#410000
1#
13
1O
1E
1P
1S
1J
0Q
1T
11
1$
#420000
0#
03
0O
0E
0P
#430000
1#
13
1O
1E
1P
0S
1U
1K
0J
1Q
14
01
1%
0$
#440000
0#
03
0O
0E
0P
#450000
1#
13
1O
1E
1P
1S
1J
0Q
0T
0V
1X
11
1$
#460000
0#
03
0O
0E
0P
#470000
1#
13
1O
1E
1P
0S
0U
0W
1Y
1M
0L
0K
0J
1Q
16
05
04
01
1'
0&
0%
0$
#480000
0#
03
0O
0E
0P
#490000
1#
13
1O
1E
1P
1S
1J
0Q
1T
11
1$
#500000
0#
03
0O
0E
0P
#510000
1#
13
1O
1E
1P
0S
1U
1K
0J
1Q
14
01
1%
0$
#520000
0#
03
0O
0E
0P
#530000
1#
13
1O
1E
1P
1S
1J
0Q
0T
1V
11
1$
#540000
0#
03
0O
0E
0P
#550000
1#
13
1O
1E
1P
0S
0U
1W
1L
0K
0J
0Z
1Q
15
04
01
1&
0%
0$
#560000
0#
03
0O
0E
0P
#570000
1#
13
1O
1E
1P
1S
1J
0Q
1T
11
1$
#580000
0#
03
0O
0E
0P
#590000
1#
13
1O
1E
1P
0S
1U
1K
0J
1Q
14
01
1%
0$
#600000
0#
03
0O
0E
0P
#610000
1#
13
1O
1E
1P
1S
1J
0Q
0T
0V
0X
0[
11
1$
#620000
0#
03
0O
0E
0P
#630000
1#
13
1O
1E
1P
0S
0U
0W
0Y
0\
0N
0M
0L
0K
0J
1Z
1Q
07
06
05
04
01
0!
0'
0&
0%
0$
#640000
0#
03
0O
0E
0P
#650000
1#
13
1O
1E
1P
1S
1J
0Q
1T
11
1$
#660000
0#
03
0O
0E
0P
#670000
1#
13
1O
1E
1P
0S
1U
1K
0J
1Q
14
01
1%
0$
#680000
0#
03
0O
0E
0P
#690000
1#
13
1O
1E
1P
1S
1J
0Q
0T
1V
11
1$
#700000
0#
03
0O
0E
0P
#710000
1#
13
1O
1E
1P
0S
0U
1W
1L
0K
0J
1Q
15
04
01
1&
0%
0$
#720000
0#
03
0O
0E
0P
#730000
1#
13
1O
1E
1P
1S
1J
0Q
1T
11
1$
#740000
0#
03
0O
0E
0P
#750000
1#
13
1O
1E
1P
0S
1U
1K
0J
1Q
14
01
1%
0$
#760000
0#
03
0O
0E
0P
#770000
1#
13
1O
1E
1P
1S
1J
0Q
0T
0V
1X
11
1$
#780000
0#
03
0O
0E
0P
#790000
1#
13
1O
1E
1P
0S
0U
0W
1Y
1M
0L
0K
0J
1Q
16
05
04
01
1'
0&
0%
0$
#800000
0#
03
0O
0E
0P
#810000
1#
13
1O
1E
1P
1S
1J
0Q
1T
11
1$
#820000
0#
03
0O
0E
0P
#830000
1#
13
1O
1E
1P
0S
1U
1K
0J
1Q
14
01
1%
0$
#840000
0#
03
0O
0E
0P
#850000
1#
13
1O
1E
1P
1S
1J
0Q
0T
1V
11
1$
#860000
0#
03
0O
0E
0P
#870000
1#
13
1O
1E
1P
0S
0U
1W
1L
0K
0J
0Z
1Q
15
04
01
1&
0%
0$
#880000
0#
03
0O
0E
0P
#890000
1#
13
1O
1E
1P
1S
1J
0Q
1T
11
1$
#900000
0#
03
0O
0E
0P
#910000
1#
13
1O
1E
1P
0S
1U
1K
0J
1Q
14
01
1%
0$
#920000
0#
03
0O
0E
0P
#930000
1#
13
1O
1E
1P
1S
1J
0Q
0T
0V
0X
1[
11
1$
#940000
0#
03
0O
0E
0P
#950000
1#
13
1O
1E
1P
0S
0U
0W
0Y
1\
1N
0M
0L
0K
0J
1Z
1Q
17
06
05
04
01
1!
0'
0&
0%
0$
#960000
0#
03
0O
0E
0P
#970000
1#
13
1O
1E
1P
1S
1J
0Q
1T
11
1$
#980000
0#
03
0O
0E
0P
#990000
1#
13
1O
1E
1P
0S
1U
1K
0J
1Q
14
01
1%
0$
