Lab/simulation/qsim/Lab1.msim.vcd
$comment
	File created using the following command:
		vcd file Lab1.msim.vcd -direction
$end
$date
	Fri Sep 15 16:22:15 2023
$end
$version
	ModelSim Version 2020.1
$end
$timescale
	1ps
$end

$scope module lab1_vhd_vec_tst $end
$var wire 1 ! A $end
$var wire 1 " B $end
$var wire 1 # C $end
$var wire 1 $ F $end
$var wire 1 % G $end

$scope module i1 $end
$var wire 1 & gnd $end
$var wire 1 ' vcc $end
$var wire 1 ( unknown $end
$var wire 1 ) devoe $end
$var wire 1 * devclrn $end
$var wire 1 + devpor $end
$var wire 1 , ww_devoe $end
$var wire 1 - ww_devclrn $end
$var wire 1 . ww_devpor $end
$var wire 1 / ww_F $end
$var wire 1 0 ww_A $end
$var wire 1 1 ww_B $end
$var wire 1 2 ww_C $end
$var wire 1 3 ww_G $end
$var wire 1 4 \~QUARTUS_CREATED_ADC1~_CHSEL_bus\ [4] $end
$var wire 1 5 \~QUARTUS_CREATED_ADC1~_CHSEL_bus\ [3] $end
$var wire 1 6 \~QUARTUS_CREATED_ADC1~_CHSEL_bus\ [2] $end
$var wire 1 7 \~QUARTUS_CREATED_ADC1~_CHSEL_bus\ [1] $end
$var wire 1 8 \~QUARTUS_CREATED_ADC1~_CHSEL_bus\ [0] $end
$var wire 1 9 \~QUARTUS_CREATED_ADC2~_CHSEL_bus\ [4] $end
$var wire 1 : \~QUARTUS_CREATED_ADC2~_CHSEL_bus\ [3] $end
$var wire 1 ; \~QUARTUS_CREATED_ADC2~_CHSEL_bus\ [2] $end
$var wire 1 < \~QUARTUS_CREATED_ADC2~_CHSEL_bus\ [1] $end
$var wire 1 = \~QUARTUS_CREATED_ADC2~_CHSEL_bus\ [0] $end
$var wire 1 > \~QUARTUS_CREATED_GND~I_combout\ $end
$var wire 1 ? \~QUARTUS_CREATED_UNVM~~busy\ $end
$var wire 1 @ \~QUARTUS_CREATED_ADC1~~eoc\ $end
$var wire 1 A \~QUARTUS_CREATED_ADC2~~eoc\ $end
$var wire 1 B \F~output_o\ $end
$var wire 1 C \G~output_o\ $end
$var wire 1 D \B~input_o\ $end
$var wire 1 E \C~input_o\ $end
$var wire 1 F \A~input_o\ $end
$var wire 1 G \inst7~0_combout\ $end
$var wire 1 H \inst10~0_combout\ $end
$upscope $end
$upscope $end
$enddefinitions $end
#0
$dumpvars
0!
0"
0#
0$
0%
0&
1'
x(
1)
1*
1+
1,
1-
1.
0/
00
01
02
03
0>
z?
z@
zA
0B
0C
0D
0E
0F
0G
0H
04
05
06
07
08
09
0:
0;
0<
0=
$end
#100000
1#
12
1E
1G
1B
1/
1$
#160000
0#
1"
02
11
1D
0E
#280000
1#
12
1E
0G
1H
1C
0B
13
0/
1%
0$
#380000
0#
0"
1!
02
01
10
1F
0D
0E
1G
0H
0C
1B
03
1/
0%
1$
#500000
1#
12
1E
0G
1H
1C
0B
13
0/
1%
0$
#600000
0#
1"
02
11
1D
0E
#740000
1#
12
1E
1G
1B
1/
1$
#980000
0#
0"
0!
02
01
00
0F
0D
0E
0G
0H
0C
0B
03
0/
0%
0$
